module github.com/schultzp2020/devfile-starter-projects/go

go 1.16

require (
	github.com/gin-gonic/gin v1.8.1 // indirect
	github.com/go-playground/validator/v10 v10.11.1 // indirect
	github.com/go-redis/redis/v8 v8.11.5 // indirect
	github.com/goccy/go-json v0.9.11 // indirect
	github.com/mattn/go-isatty v0.0.16 // indirect
	github.com/modern-go/concurrent v0.0.0-20180306012644-bacd9c7ef1dd // indirect
	github.com/pelletier/go-toml/v2 v2.0.5 // indirect
	golang.org/x/crypto v0.0.0-20220829220503-c86fa9a7ed90 // indirect
	golang.org/x/net v0.0.0-20220909164309-bea034e7d591 // indirect
	golang.org/x/sys v0.0.0-20220915200043-7b5979e65e41 // indirect
	google.golang.org/protobuf v1.28.1 // indirect
)
